-------------------------------------------------------------------------------
Test set: com.nawapat.week5.AppTest
-------------------------------------------------------------------------------
Tests run: 3, Failures: 0, Errors: 0, Skipped: 0, Time elapsed: 0.034 s - in com.nawapat.week5.AppTest
